com\mystique\job_portal\entity\Jobs.class
com\mystique\job_portal\controller\JobController.class
com\mystique\job_portal\JobPortalApplication.class
com\mystique\job_portal\service\impl\JobServiceImpl.class
com\mystique\job_portal\service\impl\CandidateServiceImpl.class
com\mystique\job_portal\service\JobService.class
com\mystique\job_portal\repository\JobRepository.class
com\mystique\job_portal\service\CandidateService.class
com\mystique\job_portal\commons\JobConstants.class
com\mystique\job_portal\entity\Candidate.class
com\mystique\job_portal\entity\dto\CandidateDto.class
com\mystique\job_portal\repository\CandidateRepo.class
com\mystique\job_portal\exception\JobNotFoundException.class
com\mystique\job_portal\exceptionHandler\ExceptionHandlerClass.class
com\mystique\job_portal\controller\CandidateController.class
com\mystique\job_portal\entity\dto\JobDto.class
