C:\Users\nithi\Downloads\job_portal\job_portal\src\test\java\com\mystique\job_portal\service\CandidateServiceImplTest.java
C:\Users\nithi\Downloads\job_portal\job_portal\src\test\java\com\mystique\job_portal\controller\JobControllerTest.java
C:\Users\nithi\Downloads\job_portal\job_portal\src\test\java\com\mystique\job_portal\entity\JobsTest.java
C:\Users\nithi\Downloads\job_portal\job_portal\src\test\java\com\mystique\job_portal\service\JobServiceImplTest.java
C:\Users\nithi\Downloads\job_portal\job_portal\src\test\java\com\mystique\job_portal\controller\CandidateControllerTest.java
C:\Users\nithi\Downloads\job_portal\job_portal\src\test\java\com\mystique\job_portal\entity\CandidateTest.java
